sim/FinalProjectFourInputNeuralNetwork.log
Command: /home/users5/sah6489/526L/FinalProject/./simv -l FinalProjectFourInputNeuralNetwork.log
Chronologic VCS simulator copyright 1991-2023
Contains Synopsys proprietary information.
Compiler version U-2023.03-SP1_Full64; Runtime version U-2023.03-SP1_Full64;  Dec  2 21:50 2023
VCD+ Writer U-2023.03-SP1_Full64 Copyright (c) 1991-2023 by Synopsys Inc.
		 INDIVIDUAL NEURON STAGE
temp_total = 4.59, w1 = 0.90, w2 = 0.03, w3 = 0.20, w4 = 0.75, in1 = 2.00, in2 = 3.00, in3 = 1.00, in4 = 2.00
TOTAL = -4.59
		 INDIVIDUAL NEURON STAGE
temp_total = 4.23, w1 = 0.46, w2 = 0.23, w3 = 0.74, w4 = 0.44, in1 = 2.00, in2 = 3.00, in3 = 1.00, in4 = 2.00
TOTAL = -4.23
		 INDIVIDUAL NEURON STAGE
temp_total = 8.51, w1 = 0.99, w2 = 0.92, w3 = 0.83, w4 = 0.97, in1 = 2.00, in2 = 3.00, in3 = 1.00, in4 = 2.00
TOTAL = -8.51
		 INDIVIDUAL NEURON STAGE
temp_total = 1.66, w1 = 0.19, w2 = 0.21, w3 = 0.26, in1 = 1.00, in2 = 1.00, in3 = 1.00
TOTAL = -1.66
		 EXPONENT BEFORE SIGMOID FORMULA IMPLEMENTATION
EXPONENT = 0.0102 
		 ACTIVATION STAGE OUTPUTS
EXPONENT = 0.0102, BASE = 2.7183, OUT = 0.9899
		 AFTER ACTIVATION STAGE
EXPONENT = 0.0102, OUT = 0.9899, ACTIVATION = 1.0000
		 EXPONENT BEFORE SIGMOID FORMULA IMPLEMENTATION
EXPONENT = 0.0146 
		 ACTIVATION STAGE OUTPUTS
EXPONENT = 0.0146, BASE = 2.7183, OUT = 0.9857
		 AFTER ACTIVATION STAGE
EXPONENT = 0.0146, OUT = 0.9857, ACTIVATION = 1.0000
		 EXPONENT BEFORE SIGMOID FORMULA IMPLEMENTATION
EXPONENT = 0.0002 
		 ACTIVATION STAGE OUTPUTS
EXPONENT = 0.0002, BASE = 2.7183, OUT = 0.9998
		 AFTER ACTIVATION STAGE
EXPONENT = 0.0002, OUT = 0.9998, ACTIVATION = 1.0000
		 EXPONENT BEFORE SIGMOID FORMULA IMPLEMENTATION
EXPONENT = 0.1901 
		 ACTIVATION STAGE OUTPUTS
EXPONENT = 0.1901, BASE = 2.7183, OUT = 0.8402
		 AFTER ACTIVATION STAGE
EXPONENT = 0.1901, OUT = 0.8402, ACTIVATION = 1.0000
$finish called from file "FourInputNeuralNetwork_tb.sv", line 74.
$finish at simulation time                  100
           V C S   S i m u l a t i o n   R e p o r t 
Time: 100 ns
CPU Time:      0.200 seconds;       Data structure size:   0.0Mb
Sat Dec  2 21:50:13 2023
